<svg width="1224" height="141" viewBox="0 0 1224 141" fill="none" xmlns="http://www.w3.org/2000/svg">
<path d="M1222 73.2172C1219.43 76.9073 1213.45 87.2588 1213.45 103.677C1213.45 114.134 1210.57 123.24 1205.12 130.016C1199.5 137.013 1191.49 140.866 1182.58 140.866H41.4194C32.504 140.866 24.5003 137.013 18.8766 130.016C13.4256 123.24 10.5466 114.125 10.5466 103.677C10.5466 87.2492 4.56781 76.8977 1.99588 73.2172L0.143707 70.5623L1.85193 67.8115C4.46225 63.6038 10.5466 52.1981 10.5466 37.3227C10.5466 16.8115 24.3947 0.124573 41.4194 0.124573H1182.57C1199.6 0.124573 1213.44 16.8115 1213.44 37.3227C1213.44 52.1981 1219.53 63.5942 1222.14 67.8115L1223.85 70.5623L1222 73.2172Z" fill="#741416" stroke="url(#paint0_linear_16_127)" stroke-width="0.25" stroke-miterlimit="10"/>
<path d="M41.4196 5.05109H1182.57C1196.88 5.05109 1208.51 19.5335 1208.51 37.3227C1208.51 53.5974 1215.29 66.115 1217.94 70.4089C1215.17 74.3866 1208.51 85.8019 1208.51 103.687C1208.51 122.684 1197.85 135.958 1182.57 135.958H41.4196C26.1416 135.958 15.4796 122.684 15.4796 103.687C15.4796 85.8019 8.81942 74.3866 6.04596 70.4089C8.71386 66.115 15.4796 53.607 15.4796 37.3227C15.4796 19.5239 27.1205 5.05109 41.4196 5.05109Z" fill="#741416" stroke="url(#paint1_linear_16_127)" stroke-miterlimit="10"/>
<defs>
<linearGradient id="paint0_linear_16_127" x1="612" y1="140.997" x2="612" y2="-2.59347e-05" gradientUnits="userSpaceOnUse">
<stop stop-color="#EDD77F"/>
<stop offset="0.2834" stop-color="#D8B262"/>
<stop offset="0.4972" stop-color="#CA9B50"/>
<stop offset="0.6864" stop-color="#D5AF5F"/>
<stop offset="0.9962" stop-color="#EDD77F"/>
<stop offset="1" stop-color="#EDD77F"/>
</linearGradient>
<linearGradient id="paint1_linear_16_127" x1="612" y1="136.43" x2="612" y2="4.56725" gradientUnits="userSpaceOnUse">
<stop stop-color="#EDD77F"/>
<stop offset="0.2834" stop-color="#D8B262"/>
<stop offset="0.4972" stop-color="#CA9B50"/>
<stop offset="0.6864" stop-color="#D5AF5F"/>
<stop offset="0.9962" stop-color="#EDD77F"/>
<stop offset="1" stop-color="#EDD77F"/>
</linearGradient>
</defs>
</svg>
