<svg width="704" height="353" viewBox="0 0 704 353" fill="none" xmlns="http://www.w3.org/2000/svg">
<path d="M690.569 352.059H13.431C13.431 348.765 12.1166 345.605 9.77679 343.276C7.437 340.946 4.26356 339.638 0.95459 339.638V13.372C4.26356 13.372 7.437 12.0633 9.77679 9.73381C12.1166 7.40433 13.431 4.24482 13.431 0.950439H690.569C690.569 4.24482 691.883 7.40433 694.223 9.73381C696.563 12.0633 699.736 13.372 703.045 13.372V339.638C699.736 339.638 696.563 340.946 694.223 343.276C691.883 345.605 690.569 348.765 690.569 352.059Z" fill="#FFF5CA"/>
<path d="M690.569 0.950381C690.569 4.24476 691.883 7.40427 694.223 9.73375C696.563 12.0632 699.736 13.3719 703.045 13.3719V339.638C701.407 339.638 699.785 339.959 698.271 340.583C696.757 341.207 695.382 342.122 694.223 343.276C693.065 344.429 692.146 345.798 691.519 347.306C690.892 348.813 690.569 350.428 690.569 352.059H13.431C13.431 350.428 13.1083 348.813 12.4813 347.306C11.8543 345.798 10.9353 344.429 9.77679 343.276C8.61824 342.122 7.24283 341.207 5.72911 340.583C4.21539 339.959 2.59302 339.638 0.954589 339.638V13.3719C4.26356 13.3719 7.437 12.0632 9.77679 9.73375C12.1166 7.40427 13.431 4.24476 13.431 0.950381H690.569ZM691.523 0H12.4764V0.950381C12.4739 3.99193 11.2592 6.90808 9.09895 9.05878C6.93873 11.2095 4.00961 12.419 0.954589 12.4215H0V340.588H0.954589C4.00961 340.59 6.93873 341.8 9.09895 343.951C11.2592 346.101 12.4739 349.018 12.4764 352.059V353.009H691.523V352.059C691.526 349.018 692.741 346.101 694.901 343.951C697.061 341.8 699.99 340.59 703.045 340.588H704V12.4215H703.045C699.99 12.419 697.061 11.2095 694.901 9.05878C692.741 6.90808 691.526 3.99193 691.523 0.950381V0Z" fill="url(#paint0_linear_27_1283)"/>
<defs>
<linearGradient id="paint0_linear_27_1283" x1="0" y1="176.505" x2="704" y2="176.505" gradientUnits="userSpaceOnUse">
<stop stop-color="#EDD77F"/>
<stop offset="0.28" stop-color="#D8B262"/>
<stop offset="0.5" stop-color="#CA9B50"/>
<stop offset="0.69" stop-color="#D5AF5F"/>
<stop offset="1" stop-color="#EDD77F"/>
</linearGradient>
</defs>
</svg>
