<svg width="538" height="77" viewBox="0 0 538 77" fill="none" xmlns="http://www.w3.org/2000/svg">
<path d="M515.09 0.5C524.18 0.5 531.57 9.42 531.57 20.38C531.57 28.33 534.82 34.42 536.21 36.67L537.12 38.14L536.13 39.56C534.76 41.53 531.57 47.06 531.57 55.84C531.57 61.43 530.03 66.3 527.12 69.92C524.12 73.66 519.84 75.72 515.09 75.72H22.63C17.87 75.72 13.6 73.66 10.6 69.92C7.69 66.3 6.15 61.43 6.15 55.84C6.15 47.06 2.96 41.53 1.59 39.56L0.6 38.15L1.51 36.68C2.91 34.43 6.15 28.34 6.15 20.39C6.15 9.42 13.55 0.5 22.63 0.5H515.09ZM515.09 0H22.63C13.27 0 5.65 9.14 5.65 20.38C5.65 28.2 2.46 34.2 1.08 36.41L0.17 37.88L0 38.16L0.19 38.43L1.18 39.85C2.53 41.78 5.66 47.21 5.66 55.85C5.66 61.55 7.24 66.53 10.22 70.24C13.32 74.1 17.73 76.23 22.64 76.23H515.1C520.01 76.23 524.42 74.1 527.52 70.24C530.5 66.53 532.08 61.55 532.08 55.85C532.08 47.21 535.21 41.79 536.55 39.85L537.54 38.43L537.73 38.16L537.56 37.88L536.65 36.41C535.28 34.2 532.08 28.2 532.08 20.38C532.07 9.14 524.45 0 515.09 0Z" fill="#741416"/>
<path d="M515.09 4.13C522.17 4.13 527.94 11.42 527.94 20.38C527.94 28.67 531.1 35.16 532.79 38.03C531.09 40.65 527.94 46.73 527.94 55.84C527.94 65.41 522.66 72.09 515.09 72.09H22.63C15.07 72.09 9.78 65.41 9.78 55.84C9.78 46.73 6.63 40.65 4.93 38.03C6.62 35.16 9.78 28.67 9.78 20.38C9.78 11.42 15.54 4.13 22.63 4.13H515.09ZM515.09 3.13H22.63C15 3.13 8.79 10.87 8.79 20.38C8.79 29.08 5.17 35.77 3.75 38.06C5.23 40.18 8.79 46.29 8.79 55.85C8.79 66 14.48 73.1 22.63 73.1H515.09C523.24 73.1 528.94 66.01 528.94 55.85C528.94 46.29 532.5 40.19 533.98 38.06C532.56 35.77 528.94 29.08 528.94 20.38C528.94 10.87 522.73 3.13 515.09 3.13Z" fill="#741416"/>
</svg>
