<svg width="25" height="17" viewBox="0 0 25 17" fill="none" xmlns="http://www.w3.org/2000/svg">
<g clip-path="url(#clip0_24_605)">
<path d="M0 9.13V7.02002H0.430054C0.53774 7.01871 0.644054 6.99621 0.743042 6.95379C0.84203 6.91137 0.931741 6.84984 1.00696 6.77276C1.08218 6.69569 1.1414 6.60457 1.1814 6.50458C1.22139 6.40458 1.24131 6.29769 1.23999 6.19C1.23736 5.97161 1.14878 5.76305 0.993408 5.60956C0.838037 5.45606 0.628442 5.36998 0.410034 5.36999H0.0200195V3.30005H4.07996L3.90002 3.08001C3.73173 2.88529 3.60523 2.65809 3.52832 2.41247C3.45142 2.16686 3.42569 1.90803 3.45288 1.6521C3.48007 1.39616 3.55961 1.14854 3.6864 0.924558C3.81319 0.700579 3.98462 0.50506 4.19006 0.350034C4.39457 0.193581 4.62969 0.0820311 4.88025 0.0227025C5.13081 -0.0366261 5.3911 -0.0424008 5.64404 0.00573471C5.89699 0.0538702 6.13689 0.154849 6.34814 0.30206C6.5594 0.449271 6.73725 0.639413 6.87 0.860044C7.07819 1.27426 7.25863 1.70184 7.41003 2.14001C7.41003 2.22001 7.47003 2.31001 7.53003 2.45001L7.94006 1.28003C8.02324 1.01754 8.16303 0.776529 8.34961 0.574033C8.53619 0.371537 8.76496 0.212491 9.01978 0.108152C9.27459 0.0038121 9.5492 -0.0432706 9.82422 -0.0297877C10.0992 -0.0163049 10.3679 0.0573906 10.6113 0.186155C10.8547 0.314919 11.0669 0.495615 11.2328 0.715391C11.3987 0.935166 11.5142 1.1887 11.5713 1.45807C11.6284 1.72743 11.6257 2.00605 11.5632 2.27423C11.5008 2.54241 11.3802 2.79356 11.21 3.01001C11.14 3.09001 11.07 3.17004 10.98 3.29004H23.98V16.54H-0.0200195V14.54H0.390015C0.610144 14.54 0.821274 14.4526 0.976929 14.2969C1.13258 14.1413 1.21997 13.9301 1.21997 13.71C1.21997 13.4899 1.13258 13.2788 0.976929 13.1231C0.821274 12.9675 0.610144 12.88 0.390015 12.88H-0.0300293V10.81H0.380005C0.597583 10.8048 0.804683 10.7154 0.957642 10.5606C1.1106 10.4058 1.19754 10.1977 1.20007 9.98004C1.20009 9.76163 1.11395 9.55197 0.960449 9.3966C0.80695 9.24123 0.598397 9.15265 0.380005 9.15002L0 9.13ZM9.57996 7.46002C9.6488 6.82553 9.52697 6.1849 9.22998 5.61999C8.92607 5.05577 8.44948 4.60371 7.87 4.33001V5.80005H7.05005V4.38C6.51084 4.67818 6.07083 5.12797 5.78467 5.67364C5.4985 6.21931 5.37876 6.83691 5.44006 7.45001H4.63C4.58148 6.84224 4.66681 6.23125 4.88 5.66003C5.09619 5.09404 5.43813 4.58456 5.88 4.17004H0.820068C0.820068 4.58004 0.820005 4.58 1.13 4.75C1.38313 4.87832 1.5992 5.06941 1.75745 5.30499C1.91569 5.54058 2.01087 5.81284 2.03394 6.0957C2.05701 6.37856 2.00714 6.6626 1.88916 6.92071C1.77118 7.17883 1.58897 7.40236 1.35999 7.57C1.18334 7.6818 0.999691 7.782 0.810059 7.86999C0.810059 8.29999 0.810024 8.29999 1.15002 8.48999C1.36799 8.60165 1.55821 8.76072 1.70667 8.9555C1.85512 9.15029 1.95806 9.37588 2.00793 9.61566C2.05781 9.85543 2.05334 10.1034 1.99487 10.3412C1.9364 10.579 1.82541 10.8007 1.67004 10.99C1.40799 11.2432 1.11971 11.4679 0.810059 11.66V12.07C1.1608 12.1705 1.46924 12.3825 1.68884 12.6738C1.90844 12.9652 2.02722 13.3201 2.02722 13.685C2.02722 14.0499 1.90844 14.4048 1.68884 14.6962C1.46924 14.9875 1.1608 15.1995 0.810059 15.3V15.74H7.03003V14.12H7.84998V15.74H23.17V4.17004H9.17004C9.61727 4.58587 9.96336 5.09854 10.1818 5.66882C10.4002 6.2391 10.4851 6.85183 10.4301 7.46002H9.57996ZM8.14001 3.22003L8.82007 3.11004C9.29538 3.02831 9.76595 2.92148 10.23 2.79004C10.4246 2.71303 10.587 2.57199 10.6907 2.3902C10.7943 2.2084 10.8329 1.9967 10.8 1.79004C10.7798 1.56805 10.6894 1.35823 10.542 1.19104C10.3946 1.02384 10.1977 0.907948 9.97998 0.860044C9.78922 0.814366 9.58889 0.831507 9.40869 0.908994C9.22849 0.986481 9.07805 1.12016 8.97998 1.29004C8.61998 1.90004 8.39001 2.54003 8.14001 3.22003ZM6.95996 3.22003C6.68996 2.56003 6.48007 1.93002 6.20007 1.34002C6.09834 1.1355 5.92486 0.975582 5.71277 0.890745C5.50067 0.805907 5.26477 0.802059 5.05005 0.880002C4.83333 0.943922 4.6427 1.07541 4.50598 1.25531C4.36926 1.4352 4.2936 1.65408 4.29004 1.88C4.2839 2.10979 4.35707 2.33471 4.49731 2.51684C4.63756 2.69898 4.83633 2.82721 5.06006 2.88C5.63006 3.02 6.25005 3.11003 6.93005 3.22003H6.95996Z" fill="white"/>
<path d="M14.0601 13.81L13.5601 13.31L20.76 6.11005L21.23 6.64001L14.0601 13.81Z" fill="white"/>
<path d="M16.99 7.67997C16.99 8.06453 16.8372 8.43337 16.5653 8.7053C16.2934 8.97722 15.9246 9.12998 15.54 9.12998C15.1554 9.12475 14.7881 8.96898 14.517 8.69602C14.2459 8.42306 14.0925 8.05471 14.09 7.67002C14.0913 7.4796 14.1301 7.2913 14.2042 7.11588C14.2783 6.94046 14.3862 6.78133 14.5217 6.64762C14.6573 6.5139 14.818 6.40818 14.9944 6.33652C15.1708 6.26487 15.3596 6.2287 15.55 6.23002C15.74 6.23001 15.928 6.26756 16.1034 6.34055C16.2788 6.41354 16.4379 6.52053 16.5718 6.65531C16.7056 6.79009 16.8115 6.94996 16.8833 7.12583C16.9551 7.30169 16.9913 7.49002 16.99 7.67997ZM16.16 7.67997C16.16 7.59901 16.1439 7.51892 16.1127 7.44425C16.0814 7.36958 16.0355 7.30187 15.9778 7.24509C15.9201 7.18831 15.8517 7.14356 15.7765 7.1135C15.7013 7.08344 15.621 7.06865 15.54 7.06998C15.3756 7.06998 15.2178 7.13529 15.1016 7.25156C14.9853 7.36783 14.92 7.52554 14.92 7.68998C14.92 7.85441 14.9853 8.01212 15.1016 8.12839C15.2178 8.24466 15.3756 8.30997 15.54 8.30997C15.6215 8.30739 15.7015 8.28879 15.7758 8.25522C15.85 8.22165 15.9169 8.17379 15.9727 8.11435C16.0284 8.05492 16.0719 7.98509 16.1006 7.90885C16.1293 7.8326 16.1427 7.75145 16.14 7.67002L16.16 7.67997Z" fill="white"/>
<path d="M17.8201 12.24C17.8201 11.9536 17.9048 11.6737 18.0637 11.4355C18.2226 11.1972 18.4485 11.0114 18.7129 10.9014C18.9773 10.7913 19.2682 10.762 19.5492 10.8172C19.8302 10.8723 20.0886 11.0094 20.2917 11.2112C20.4949 11.413 20.6338 11.6704 20.6909 11.951C20.748 12.2316 20.7208 12.5229 20.6125 12.788C20.5043 13.0531 20.32 13.2803 20.0829 13.4408C19.8458 13.6013 19.5664 13.688 19.28 13.69C18.8953 13.6874 18.527 13.5341 18.254 13.263C17.9811 12.992 17.8253 12.6246 17.8201 12.24ZM19.89 12.24C19.89 12.159 19.8739 12.0789 19.8427 12.0043C19.8114 11.9296 19.7656 11.8619 19.7079 11.8051C19.6502 11.7483 19.5816 11.7036 19.5065 11.6735C19.4313 11.6434 19.351 11.6287 19.27 11.63C19.1056 11.63 18.9479 11.6953 18.8317 11.8116C18.7154 11.9278 18.65 12.0855 18.65 12.25C18.65 12.4144 18.7154 12.5721 18.8317 12.6884C18.9479 12.8047 19.1056 12.87 19.27 12.87C19.3531 12.87 19.4354 12.8534 19.512 12.821C19.5885 12.7886 19.6579 12.7411 19.7157 12.6814C19.7735 12.6217 19.8187 12.551 19.8486 12.4734C19.8786 12.3959 19.8927 12.3131 19.89 12.23V12.24Z" fill="white"/>
<path d="M7.87 6.94V9.38H7.06006V6.94H7.87Z" fill="white"/>
<path d="M7.06006 13.02V10.57H7.85999V13.02H7.06006Z" fill="white"/>
</g>
<defs>
<clipPath id="clip0_24_605">
<rect width="24.02" height="16.57" fill="white"/>
</clipPath>
</defs>
</svg>
