<svg width="18" height="21" viewBox="0 0 18 21" fill="none" xmlns="http://www.w3.org/2000/svg">
<g clip-path="url(#clip0_145_3361)">
<path d="M6.68001 10.0504C7.29424 10.4366 7.99699 10.6593 8.72152 10.6978C9.44604 10.7363 10.1683 10.589 10.82 10.2701C10.8914 10.2378 10.9557 10.1917 11.009 10.1344C11.0623 10.077 11.1037 10.0097 11.1307 9.93612C11.1577 9.86258 11.1698 9.78439 11.1662 9.70614C11.1627 9.62788 11.1436 9.55086 11.1101 9.48006C11.0788 9.40905 11.0336 9.3453 10.9771 9.29207C10.9207 9.23884 10.8541 9.19753 10.7813 9.17049C10.7086 9.14345 10.6312 9.13094 10.5537 9.13436C10.4761 9.13778 10.4001 9.15669 10.33 9.19002C9.85851 9.42223 9.33558 9.53024 8.81063 9.50399C8.28568 9.47774 7.77605 9.31821 7.33004 9.04012C6.91224 8.76974 6.56822 8.39988 6.32906 7.96346C6.0899 7.52704 5.96312 7.03777 5.96004 6.54012C5.96004 5.74447 6.27609 4.98164 6.8387 4.41903C7.40131 3.85642 8.16439 3.54012 8.96004 3.54012C9.75569 3.54012 10.5188 3.85642 11.0814 4.41903C11.644 4.98164 11.96 5.74447 11.96 6.54012C11.9601 6.61845 11.9444 6.69591 11.9141 6.76815C11.8839 6.84039 11.8395 6.9061 11.7836 6.96102C11.7278 7.01594 11.6617 7.05892 11.5889 7.08797C11.5162 7.11703 11.4384 7.13129 11.3601 7.12996C11.2831 7.13129 11.2065 7.1175 11.135 7.08895C11.0634 7.0604 10.9984 7.01794 10.9434 6.96395C10.8885 6.90996 10.8449 6.84552 10.8151 6.7745C10.7854 6.70347 10.77 6.62739 10.77 6.55037C10.7706 6.14308 10.6315 5.74787 10.3759 5.43075C10.1204 5.11362 9.7638 4.89366 9.36568 4.8077C8.96756 4.72174 8.55208 4.77466 8.18843 4.95809C7.82479 5.14152 7.535 5.44425 7.36751 5.81551C7.20003 6.18677 7.16488 6.60411 7.26802 6.99813C7.37117 7.39214 7.60637 7.73897 7.93428 7.98055C8.2622 8.22213 8.66302 8.34404 9.0699 8.32577C9.47679 8.30749 9.86507 8.14997 10.17 7.87996C10.4991 8.16902 10.922 8.3291 11.3601 8.33016C11.8331 8.33017 12.2869 8.14318 12.6223 7.80965C12.9577 7.47612 13.1473 7.02338 13.15 6.55037C13.1512 5.82576 12.9637 5.11303 12.6058 4.48299C12.2479 3.85295 11.7319 3.32704 11.1088 2.95711C10.4858 2.58719 9.77707 2.38622 9.05257 2.37362C8.32807 2.36101 7.61282 2.53731 6.97725 2.88534C6.34169 3.23336 5.80781 3.74078 5.42818 4.35799C5.04855 4.9752 4.83628 5.68065 4.81234 6.40487C4.78839 7.12908 4.95355 7.84743 5.29158 8.48836C5.62962 9.1293 6.12888 9.6709 6.74007 10.0601L6.68001 10.0504ZM8.92 7.12996C8.76352 7.12996 8.61353 7.06776 8.50289 6.95711C8.39224 6.84647 8.33004 6.6966 8.33004 6.54012C8.33001 6.38271 8.39191 6.23146 8.50228 6.11922C8.61265 6.00698 8.76261 5.94265 8.92 5.94002C9.06662 5.93926 9.20827 5.99341 9.31734 6.09139C9.42641 6.18937 9.49518 6.32444 9.51009 6.4703C9.50008 6.52316 9.50008 6.5771 9.51009 6.62996C9.48843 6.77038 9.41682 6.89846 9.30843 6.99032C9.20004 7.08217 9.06207 7.13163 8.92 7.12996Z" fill="#741416"/>
<path d="M17.84 7.8301C17.8407 7.75235 17.826 7.67513 17.7969 7.60305C17.7677 7.53097 17.7245 7.46553 17.6699 7.41018L15.47 5.20022V0.609887C15.47 0.531559 15.4543 0.454102 15.4241 0.38186C15.3938 0.309618 15.3494 0.244396 15.2936 0.189477C15.2377 0.134558 15.1715 0.0910908 15.0988 0.0620355C15.026 0.0329802 14.9483 0.0187157 14.87 0.0200433H2.97998C2.90166 0.0187157 2.82384 0.0329802 2.7511 0.0620355C2.67836 0.0910908 2.61212 0.134558 2.55627 0.189477C2.50042 0.244396 2.45605 0.309618 2.42578 0.38186C2.39551 0.454102 2.37999 0.531559 2.38 0.609887V5.20022L0.179932 7.41018C0.0731393 7.52425 0.0126288 7.67386 0.0100098 7.8301V18.5303C0.0100098 19.005 0.19849 19.4602 0.53418 19.7959C0.86987 20.1316 1.32519 20.3203 1.79993 20.3203H16.0699C16.5429 20.3177 16.9957 20.1279 17.3292 19.7925C17.6628 19.4571 17.85 19.0033 17.85 18.5303V7.8301H17.84ZM16.4099 7.8301L15.47 8.77004V6.8301L16.4099 7.8301ZM14.2799 1.20998V5.45022V9.95998L11.0599 13.1802H6.78992L3.56995 9.95998V5.45022V1.20998H14.2799ZM2.38 8.77004L1.43994 7.8301L2.38 6.87991V8.77004ZM1.18994 18.2901V9.29006L5.69995 13.8003L1.18994 18.2901ZM2.02991 19.1299L6.78992 14.3701H11.0599L15.8099 19.1299H2.02991ZM16.6499 18.2901L12.14 13.77L16.6499 9.26028V18.2901Z" fill="#741416"/>
</g>
<defs>
<clipPath id="clip0_145_3361">
<rect width="17.84" height="20.3" fill="white"/>
</clipPath>
</defs>
</svg>
