<svg width="18" height="21" viewBox="0 0 18 21" fill="none" xmlns="http://www.w3.org/2000/svg">
<g clip-path="url(#clip0_41_2017)">
<path d="M6.67995 10.0504C7.29418 10.4366 7.99693 10.6594 8.72145 10.6979C9.44598 10.7364 10.1683 10.5891 10.82 10.2702C10.8913 10.2379 10.9556 10.1918 11.0089 10.1344C11.0623 10.077 11.1036 10.0097 11.1306 9.93618C11.1576 9.86264 11.1697 9.78445 11.1662 9.7062C11.1626 9.62794 11.1435 9.55092 11.11 9.48012C11.0787 9.40911 11.0335 9.34537 10.9771 9.29214C10.9206 9.2389 10.854 9.19759 10.7813 9.17055C10.7085 9.14351 10.6311 9.131 10.5536 9.13442C10.4761 9.13784 10.4 9.15675 10.33 9.19008C9.85844 9.4223 9.33552 9.5303 8.81057 9.50405C8.28561 9.4778 7.77599 9.31827 7.32998 9.04018C6.91218 8.7698 6.56816 8.39994 6.329 7.96352C6.08984 7.5271 5.96306 7.03783 5.95998 6.54018C5.95998 5.74453 6.27603 4.9817 6.83864 4.41909C7.40125 3.85648 8.16433 3.54018 8.95998 3.54018C9.75563 3.54018 10.5187 3.85648 11.0813 4.41909C11.6439 4.9817 11.96 5.74453 11.96 6.54018C11.96 6.61851 11.9444 6.69597 11.9141 6.76821C11.8838 6.84045 11.8394 6.90616 11.7836 6.96108C11.7277 7.016 11.6616 7.05898 11.5889 7.08803C11.5161 7.11709 11.4383 7.13135 11.36 7.13003C11.283 7.13135 11.2064 7.11756 11.1349 7.08901C11.0634 7.06046 10.9983 7.018 10.9434 6.96401C10.8885 6.91002 10.8449 6.84559 10.8151 6.77456C10.7853 6.70353 10.7699 6.62745 10.7699 6.55044C10.7705 6.14314 10.6314 5.74793 10.3759 5.43081C10.1203 5.11368 9.76374 4.89372 9.36562 4.80776C8.9675 4.7218 8.55202 4.77472 8.18837 4.95815C7.82473 5.14158 7.53494 5.44431 7.36745 5.81557C7.19996 6.18683 7.16482 6.60417 7.26796 6.99819C7.37111 7.39221 7.60631 7.73904 7.93422 7.98061C8.26214 8.22219 8.66296 8.3441 9.06984 8.32583C9.47673 8.30755 9.86501 8.15003 10.1699 7.88003C10.4991 8.16908 10.922 8.32916 11.36 8.33022C11.833 8.33023 12.2868 8.14324 12.6222 7.80971C12.9576 7.47618 13.1473 7.02344 13.1499 6.55044C13.1512 5.82583 12.9637 5.11309 12.6057 4.48305C12.2478 3.85301 11.7319 3.3271 11.1088 2.95717C10.4857 2.58725 9.77701 2.38628 9.05251 2.37368C8.32801 2.36107 7.61276 2.53737 6.97719 2.8854C6.34163 3.23342 5.80775 3.74085 5.42812 4.35805C5.04849 4.97526 4.83622 5.68071 4.81228 6.40493C4.78833 7.12914 4.95349 7.84749 5.29152 8.48842C5.62956 9.12936 6.12882 9.67096 6.74001 10.0602L6.67995 10.0504ZM8.91994 7.13003C8.76346 7.13003 8.61347 7.06782 8.50283 6.95717C8.39218 6.84653 8.32998 6.69666 8.32998 6.54018C8.32995 6.38277 8.39185 6.23152 8.50222 6.11928C8.61258 6.00705 8.76255 5.94271 8.91994 5.94008C9.06656 5.93932 9.20821 5.99347 9.31728 6.09145C9.42635 6.18943 9.49512 6.3245 9.51003 6.47036C9.50002 6.52322 9.50002 6.57716 9.51003 6.63003C9.48837 6.77044 9.41676 6.89852 9.30837 6.99038C9.19998 7.08223 9.06201 7.13169 8.91994 7.13003Z" fill="white"/>
<path d="M17.84 7.83016C17.8408 7.75241 17.8261 7.67519 17.7969 7.60311C17.7678 7.53103 17.7246 7.46559 17.67 7.41024L15.47 5.20028V0.609948C15.47 0.53162 15.4544 0.454163 15.4241 0.381921C15.3939 0.309679 15.3495 0.244457 15.2936 0.189538C15.2378 0.134619 15.1716 0.0911519 15.0988 0.0620966C15.0261 0.0330412 14.9484 0.0187768 14.8701 0.0201044H2.98004C2.90172 0.0187768 2.8239 0.0330412 2.75116 0.0620966C2.67842 0.0911519 2.61219 0.134619 2.55634 0.189538C2.50049 0.244457 2.45612 0.309679 2.42584 0.381921C2.39557 0.454163 2.38005 0.53162 2.38007 0.609948V5.20028L0.179993 7.41024C0.0732003 7.52431 0.0126899 7.67392 0.0100708 7.83016V18.5304C0.0100708 19.0051 0.198551 19.4603 0.534241 19.796C0.869931 20.1317 1.32525 20.3204 1.79999 20.3204H16.07C16.543 20.3178 16.9958 20.128 17.3293 19.7926C17.6628 19.4572 17.85 19.0034 17.85 18.5304V7.83016H17.84ZM16.41 7.83016L15.47 8.7701V6.83016L16.41 7.83016ZM14.28 1.21005V5.45028V9.96005L11.06 13.1803H6.78998L3.57001 9.96005V5.45028V1.21005H14.28ZM2.38007 8.7701L1.44 7.83016L2.38007 6.87997V8.7701ZM1.19 18.2901V9.29012L5.70001 13.8004L1.19 18.2901ZM2.02997 19.13L6.78998 14.3702H11.06L15.81 19.13H2.02997ZM16.65 18.2901L12.1401 13.7701L16.65 9.26034V18.2901Z" fill="white"/>
</g>
<defs>
<clipPath id="clip0_41_2017">
<rect width="17.84" height="20.3" fill="white"/>
</clipPath>
</defs>
</svg>
