<svg width="17" height="18" viewBox="0 0 17 18" fill="none" xmlns="http://www.w3.org/2000/svg">
<path d="M8.17601 2.38798C10.329 2.38798 10.5878 2.39974 11.4348 2.43504C12.2231 2.47033 12.6466 2.59974 12.929 2.71739C13.3054 2.85856 13.576 3.03504 13.8584 3.31739C14.1407 3.59974 14.3172 3.87033 14.4584 4.2468C14.5642 4.52915 14.7054 4.95268 14.7407 5.74092C14.776 6.58798 14.7878 6.8468 14.7878 8.99974C14.7878 11.1527 14.776 11.4115 14.7407 12.2586C14.7054 13.0468 14.576 13.4703 14.4584 13.7527C14.3172 14.1292 14.1407 14.3997 13.8584 14.6821C13.576 14.9644 13.3054 15.1409 12.929 15.2821C12.6466 15.388 12.2231 15.5292 11.4348 15.5644C10.5878 15.5997 10.329 15.6115 8.17601 15.6115C6.02307 15.6115 5.76424 15.5997 4.91719 15.5644C4.12895 15.5292 3.70542 15.3997 3.42307 15.2821C3.0466 15.1409 2.77601 14.9644 2.49365 14.6821C2.2113 14.3997 2.03483 14.1292 1.89366 13.7527C1.78777 13.4703 1.6466 13.0468 1.6113 12.2586C1.57601 11.4115 1.56425 11.1527 1.56425 8.99974C1.56425 6.8468 1.57601 6.58798 1.6113 5.74092C1.6466 4.95268 1.77601 4.52915 1.89366 4.2468C2.03483 3.87033 2.2113 3.59974 2.49365 3.31739C2.77601 3.03504 3.0466 2.85856 3.42307 2.71739C3.70542 2.61151 4.12895 2.47033 4.91719 2.43504C5.76424 2.39974 6.02307 2.38798 8.17601 2.38798ZM8.17601 0.940918C5.98777 0.940918 5.71718 0.952683 4.8466 0.987977C3.98777 1.02327 3.39954 1.16445 2.89365 1.36445C2.36424 1.57621 1.91718 1.8468 1.47013 2.29386C1.02307 2.74092 0.740713 3.18798 0.540713 3.71739C0.340713 4.23504 0.199537 4.81151 0.164243 5.67033C0.128949 6.52915 0.117188 6.79974 0.117188 8.99974C0.117188 11.188 0.128949 11.4586 0.164243 12.3292C0.199537 13.188 0.340713 13.7762 0.540713 14.2821C0.752478 14.8115 1.02307 15.2586 1.47013 15.7056C1.91718 16.1527 2.36424 16.435 2.89365 16.635C3.4113 16.835 3.98777 16.9762 4.8466 17.0115C5.70542 17.0468 5.97601 17.0586 8.17601 17.0586C10.3642 17.0586 10.6348 17.0468 11.5054 17.0115C12.3642 16.9762 12.9525 16.835 13.4584 16.635C13.9878 16.4233 14.4348 16.1527 14.8819 15.7056C15.329 15.2586 15.6113 14.8115 15.8113 14.2821C16.0113 13.7644 16.1525 13.188 16.1878 12.3292C16.2231 11.4703 16.2348 11.1997 16.2348 8.99974C16.2348 6.81151 16.2231 6.54092 16.1878 5.67033C16.1525 4.81151 16.0113 4.22327 15.8113 3.71739C15.5995 3.18798 15.329 2.74092 14.8819 2.29386C14.4348 1.8468 13.9878 1.56445 13.4584 1.36445C12.9407 1.16445 12.3642 1.02327 11.5054 0.987977C10.6348 0.940918 10.3642 0.940918 8.17601 0.940918Z" fill="#741416"/>
<path d="M8.17584 4.8584C5.89349 4.8584 4.03467 6.71722 4.03467 8.99958C4.03467 11.2819 5.89349 13.1408 8.17584 13.1408C10.4582 13.1408 12.317 11.2819 12.317 8.99958C12.317 6.71722 10.4582 4.8584 8.17584 4.8584ZM8.17584 11.6819C6.69349 11.6819 5.49349 10.4819 5.49349 8.99958C5.49349 7.51722 6.69349 6.31722 8.17584 6.31722C9.6582 6.31722 10.8582 7.51722 10.8582 8.99958C10.8582 10.4819 9.6582 11.6819 8.17584 11.6819Z" fill="#741416"/>
<path d="M13.4465 4.69371C13.4465 5.22312 13.0112 5.65842 12.4818 5.65842C11.9524 5.65842 11.5171 5.22312 11.5171 4.69371C11.5171 4.1643 11.9524 3.729 12.4818 3.729C13.0112 3.729 13.4465 4.1643 13.4465 4.69371Z" fill="#741416"/>
</svg>
