<svg width="137" height="109" viewBox="0 0 137 109" fill="none" xmlns="http://www.w3.org/2000/svg">
<g clip-path="url(#clip0_41_1911)">
<mask id="mask0_41_1911" style="mask-type:luminance" maskUnits="userSpaceOnUse" x="40" y="22" width="57" height="57">
<path d="M61.7228 73.7343C61.5029 73.4141 61.512 73.3866 61.842 73.2219C62.2439 73.0222 62.6354 72.8021 63.015 72.5628C63.2624 72.3981 63.2716 72.4074 63.4549 72.6544C64.3426 73.9433 65.6959 74.8386 67.2307 75.1525C68.7348 75.4831 70.3088 75.2173 71.6205 74.4112C72.3694 73.9758 73.0113 73.379 73.4992 72.6638C73.6916 72.3984 73.7008 72.3984 73.9666 72.5722C74.3563 72.824 74.7602 73.0531 75.1763 73.2585C75.4512 73.3958 75.4512 73.4046 75.2863 73.67C74.6946 74.6133 73.915 75.4249 72.9959 76.0546C72.0767 76.6842 71.0377 77.1184 69.9434 77.3302C69.476 77.4217 69.0269 77.3944 68.5779 77.4767C67.2145 77.4835 65.8714 77.1468 64.6731 76.4973C63.4748 75.8479 62.46 74.9068 61.7228 73.7616M85.5505 71.0165C85.5505 70.4583 85.5505 69.8911 85.5505 69.3329C85.5505 68.61 85.5505 67.8781 85.5505 67.1552C85.5336 66.9848 85.5555 66.8125 85.6147 66.6517L91.3333 69.937C91.3333 69.9827 91.3333 70.0281 91.2875 70.0281C89.7235 70.1083 88.1797 70.4166 86.7052 70.9432L85.7888 71.2635C85.7309 71.2695 85.6725 71.2695 85.6147 71.2635C85.523 71.2635 85.5047 71.1903 85.5047 71.0165M45.5109 69.9553L51.2936 66.6517C51.366 66.7693 51.3921 66.9096 51.3669 67.0453C51.3669 68.3172 51.3669 69.5891 51.3669 70.861C51.3669 71.3185 51.3669 71.3277 50.8996 71.163C50.0446 70.854 49.1725 70.5942 48.2877 70.3851C47.4445 70.1748 46.5811 70.0551 45.7124 70.0281H45.6483C45.6185 70.0299 45.5889 70.0231 45.5629 70.0085C45.5369 69.9939 45.5157 69.9722 45.5017 69.9459M81.1332 72.3341C81.1332 70.5589 81.1332 68.7839 81.1332 67.0087C81.1332 66.2126 81.1332 65.4166 81.1332 64.6205C81.1286 64.5505 81.1286 64.4802 81.1332 64.4101C81.1332 64.1996 81.2249 64.1629 81.4173 64.2635L81.8755 64.5196C82.5812 64.9313 83.2869 65.3523 84.0109 65.755C84.1087 65.7946 84.1905 65.8654 84.2436 65.9565C84.2967 66.0476 84.318 66.154 84.3041 66.2585C84.3041 67.1095 84.3041 67.9695 84.3041 68.8204C84.3041 69.6714 84.3041 70.5225 84.3041 71.3735C84.3258 71.4778 84.3052 71.5863 84.2468 71.6755C84.1884 71.7647 84.097 71.8273 83.9925 71.8493C83.1494 72.1055 82.3154 72.4073 81.454 72.5995H81.2248C81.1057 72.5995 81.0966 72.5262 81.0966 72.2974M55.436 72.5812C54.5195 72.3615 53.6031 72.0782 52.7416 71.7671C52.6653 71.7475 52.5993 71.6997 52.5568 71.6335C52.5143 71.5673 52.4985 71.4875 52.5125 71.4101C52.5125 69.6441 52.5125 67.8778 52.5125 66.1209C52.5047 66.0571 52.5162 65.9926 52.5456 65.9355C52.575 65.8784 52.621 65.8317 52.6775 65.801L55.6193 64.1264H55.6926C55.724 64.2742 55.724 64.4267 55.6926 64.5745C55.6926 67.1 55.6926 69.6256 55.6926 72.1603V72.3707C55.6926 72.5354 55.6376 72.5905 55.5368 72.5905H55.4177M44.9243 68.5917C44.8693 68.5002 44.9243 68.4451 44.9243 68.3902C45.6403 66.9449 46.1434 65.4039 46.4181 63.815C46.4823 63.513 46.5373 63.2202 46.6014 62.8999C46.6014 62.7718 46.6931 62.7355 46.8122 62.7905L47.0413 62.9276L50.3863 65.0231L50.533 65.1147C50.7163 65.252 50.7163 65.3067 50.533 65.4257L48.8009 66.4046L45.2451 68.4268C45.1626 68.4726 45.0801 68.5644 44.9701 68.5644H44.9243M86.2287 65.3524C86.2196 65.3352 86.2144 65.3164 86.2132 65.297C86.2121 65.2776 86.215 65.258 86.222 65.2398C86.2289 65.2216 86.2396 65.2053 86.2534 65.1915C86.2672 65.1778 86.2838 65.1671 86.302 65.1603C87.1634 64.6021 88.0341 64.0347 88.9139 63.4857C89.3263 63.2295 89.757 63.0006 90.2519 62.7078C90.5374 64.7586 91.1565 66.7491 92.0848 68.6006C92.0611 68.6196 92.0397 68.6414 92.0206 68.665L86.2103 65.3524M77.0458 72.5628C76.7984 72.4988 76.7984 72.3343 76.7984 72.133C76.7984 70.6323 76.7984 69.1315 76.7984 67.6217C76.7984 65.7275 76.8809 63.8428 76.8626 61.9487C76.8626 61.8572 76.8626 61.7745 76.8626 61.6373C77.0347 61.6672 77.1977 61.7363 77.3391 61.8388C78.1089 62.278 78.8696 62.7535 79.6486 63.147C79.7726 63.2009 79.8759 63.2932 79.9436 63.4102C80.0112 63.5271 80.0395 63.6625 80.0243 63.7966C80.0243 66.6241 80.0243 69.4608 80.0243 72.2974C80.0197 72.3828 80.0197 72.4686 80.0243 72.5539C80.0285 72.5902 80.0246 72.627 80.0128 72.6616C80.0011 72.6962 79.9818 72.7274 79.9564 72.7536C79.931 72.7799 79.9001 72.8001 79.8659 72.813C79.8317 72.8259 79.795 72.8312 79.7586 72.8282H79.2362C78.4998 72.8297 77.7664 72.7343 77.055 72.5445M57.2781 72.8099C56.939 72.8099 56.9115 72.81 56.9115 72.4257C56.9115 71.6204 56.9115 70.8061 56.9115 70.0009C56.9115 67.9237 56.9115 65.8376 56.9115 63.7605C56.8966 63.6322 56.9233 63.5025 56.9876 63.3905C57.052 63.2785 57.1505 63.19 57.2689 63.1381C57.8737 62.8178 58.4786 62.47 59.056 62.0948C59.3126 61.9209 59.6242 61.8203 59.8991 61.6556C60.174 61.4909 60.1465 61.6555 60.1374 61.8111C60.1282 61.9666 60.1374 61.985 60.1374 62.0765V67.0636V72.087C60.1374 72.4713 60.1374 72.4716 59.7433 72.5722C59.1044 72.7459 58.4442 72.8291 57.7821 72.8193H57.2964M75.2404 71.7943C74.3479 71.3407 73.5682 70.6937 72.9585 69.9004C72.3106 69.0566 71.9538 68.0262 71.9412 66.9631C71.9311 65.7334 72.1874 64.5156 72.6927 63.3941C73.126 62.3653 73.6699 61.3866 74.3148 60.4751C74.5073 60.2098 74.5073 60.2099 74.7914 60.3563C75.0755 60.5027 75.0663 60.5208 75.2129 60.594C75.7628 60.9143 75.6987 60.7499 75.6987 61.4179C75.6987 63.0924 75.6987 64.7761 75.6987 66.4506V71.5289C75.6987 71.8309 75.6987 71.9592 75.5979 71.9592C75.4701 71.9253 75.3492 71.8694 75.2404 71.7943ZM61.2646 70.7877C61.2646 67.6308 61.2646 64.4832 61.2646 61.3263C61.2394 61.1863 61.2654 61.0418 61.3377 60.9193C61.41 60.7967 61.5239 60.7042 61.6587 60.6583C61.8353 60.5657 62.0039 60.4584 62.1627 60.338C62.3918 60.1824 62.4743 60.1916 62.6301 60.4112C63.8163 61.9915 64.6222 63.8232 64.9854 65.7643C65.1216 66.4695 65.1105 67.1949 64.9528 67.8956C64.7951 68.5963 64.4942 69.2569 64.0689 69.836C63.39 70.7235 62.5108 71.4386 61.5029 71.9226C61.4451 71.9304 61.3865 71.9304 61.3287 71.9226C61.3287 71.5108 61.2554 71.1446 61.2554 70.7694M51.706 64.4374C50.2122 63.4766 48.7001 62.5342 47.1971 61.5917C47.023 61.4819 46.9405 61.3721 46.9863 61.1708C47.1603 60.2046 47.4085 59.2529 47.7286 58.3247C47.7566 58.2917 47.7872 58.2614 47.8203 58.2336L55.0694 62.7538C54.9722 62.8983 54.8307 63.0073 54.6662 63.0648C53.8689 63.5315 53.0624 63.9798 52.2559 64.4374C52.1755 64.4946 52.0797 64.5265 51.981 64.5289C51.8824 64.5254 51.787 64.4936 51.706 64.4374ZM84.6982 64.4374C83.7817 63.8975 82.8653 63.3852 81.8389 62.8088L89.1705 58.2336C89.2912 58.4721 89.3835 58.7237 89.4454 58.9837C89.6562 59.6883 89.812 60.4111 89.9678 61.1248C90.0037 61.2256 89.9989 61.3366 89.9545 61.434C89.91 61.5313 89.8293 61.6077 89.7295 61.6466L87.2001 63.2297C86.5678 63.6323 85.9262 64.0166 85.2939 64.4284C85.2001 64.5046 85.0847 64.549 84.964 64.5562C84.8593 64.5479 84.7584 64.5134 84.6707 64.4557M66.1034 73.5056C65.4011 73.1241 64.808 72.5695 64.3805 71.8949C64.3467 71.8632 64.3197 71.8252 64.3012 71.7827C64.2828 71.7402 64.2733 71.6941 64.2733 71.6478C64.2733 71.6015 64.2828 71.5558 64.3012 71.5133C64.3197 71.4708 64.3467 71.4324 64.3805 71.4007C64.9426 70.835 65.396 70.1717 65.7185 69.4428C66.041 68.7472 66.2216 67.9941 66.2501 67.2281C66.3173 66.1424 66.1838 65.0538 65.856 64.0165C65.3945 62.6052 64.7374 61.2653 63.904 60.0359C63.574 59.5601 63.5741 59.5511 64.0689 59.2674C64.9396 58.7733 65.8102 58.2882 66.6717 57.785C67.2718 57.4878 67.779 57.0321 68.138 56.4674C68.214 56.3317 68.3334 56.2253 68.4771 56.1653C68.8403 56.7582 69.3359 57.2593 69.925 57.6295C70.6307 58.0687 71.3547 58.4531 72.0787 58.8649C72.3811 59.0296 72.6836 59.1943 72.9952 59.3774C73.3067 59.5604 73.2976 59.5695 73.0868 59.8715C72.6862 60.4587 72.322 61.0699 71.9962 61.7016C71.271 63.0058 70.8071 64.4385 70.6307 65.9198C70.4985 66.9069 70.595 67.9109 70.9128 68.8549C71.2306 69.7988 71.7611 70.6571 72.4636 71.3641C72.7202 71.6203 72.7294 71.6387 72.5186 71.9315C72.0821 72.5928 71.4893 73.1367 70.7924 73.515C70.0955 73.8932 69.316 74.0942 68.5229 74.1003H68.4037C67.5869 74.1119 66.7813 73.9099 66.0668 73.5145M55.9217 62.0126L53.4656 60.4568C52.2467 59.6882 51.037 58.8921 49.7998 58.1509C49.3691 57.8947 48.9384 57.6294 48.526 57.3458C48.1135 57.0621 48.2419 57.1444 48.3885 56.8699C48.8006 56.1223 49.3227 55.4407 49.9373 54.8477C50.0093 54.7767 50.1065 54.7369 50.2077 54.7369C50.3089 54.7369 50.406 54.7767 50.478 54.8477L52.43 56.0648L59.0376 60.2097C59.1627 60.267 59.2656 60.3636 59.3309 60.4845L57.4522 61.5734C57.1772 61.7381 56.884 61.8751 56.6274 62.0581C56.5325 62.1385 56.4127 62.1839 56.2883 62.1864C56.1563 62.1798 56.029 62.1352 55.9217 62.0581M80.4642 62.1591C79.8723 61.7594 79.2606 61.3895 78.6313 61.0515L77.6416 60.4751C77.8985 60.1857 78.2099 59.9496 78.558 59.7799C79.5294 59.2675 80.3909 58.6362 81.3623 58.0597C82.5262 57.3552 83.6809 56.6319 84.8082 55.8816C85.3305 55.543 85.8804 55.2593 86.3845 54.9116C86.8885 54.5639 86.7786 54.674 87.1176 54.9943C87.6985 55.5444 88.1874 56.1837 88.5656 56.8882C88.7306 57.1811 88.7306 57.2086 88.4373 57.4007L84.7715 59.6883L81.1057 61.9849L80.7666 62.1864C80.7217 62.1989 80.6741 62.1989 80.6292 62.1864C80.5657 62.1844 80.5046 62.1621 80.455 62.1225M60.2932 59.6061L57.388 57.776L51.6144 54.1614C51.4679 54.0864 51.3396 53.9803 51.2387 53.8505C52.1702 53.2698 53.2184 52.901 54.3087 52.7705C55.71 52.6646 57.0965 53.1152 58.167 54.0243C59.2581 54.9318 60.1716 56.033 60.8614 57.2725C61.1546 57.7575 61.4021 58.27 61.6495 58.7733C61.7412 58.9471 61.7137 59.0386 61.5395 59.1575C61.3654 59.2765 60.9255 59.4779 60.6231 59.67C60.5922 59.6965 60.5537 59.7123 60.5131 59.7156C60.4215 59.7156 60.3573 59.6335 60.2748 59.5878M76.0103 59.5328C75.8178 59.3956 75.6162 59.2948 75.4146 59.1758C75.374 59.1618 75.3371 59.1387 75.3066 59.1084C75.2762 59.0781 75.2531 59.0417 75.239 59.0012C75.2249 58.9606 75.2201 58.9173 75.2251 58.8747C75.2302 58.8321 75.2448 58.7911 75.2679 58.755C76.0427 56.9705 77.2003 55.3774 78.6588 54.0882C79.616 53.2465 80.8388 52.7673 82.1138 52.7339C82.9126 52.7269 83.7036 52.8926 84.4324 53.2191C84.8357 53.4113 85.2389 53.6032 85.6421 53.8411C85.5885 53.964 85.4903 54.0623 85.3672 54.1159L78.6771 58.3158C78.0264 58.7275 77.3575 59.1025 76.7251 59.5235C76.6225 59.6028 76.4974 59.6478 76.3677 59.6517C76.2393 59.6487 76.1148 59.6073 76.0103 59.5328ZM73.3342 49.3758C74.3102 49.2447 75.2613 48.9701 76.1569 48.5613C76.8157 48.2473 77.4317 47.8506 77.9898 47.3808C78.9718 46.517 79.6658 45.3743 79.9785 44.1053C80.0426 43.8766 80.1618 43.8489 80.3542 43.8672C81.1383 43.9314 81.8926 44.196 82.5445 44.6357C83.0875 44.984 83.5564 45.436 83.9244 45.9654C84.2925 46.4947 84.5524 47.0911 84.6894 47.7208C84.8265 48.3505 84.8379 49.0008 84.723 49.6349C84.6081 50.269 84.3693 50.8744 84.02 51.4163C83.9712 51.5062 83.8913 51.5753 83.7951 51.6107C83.699 51.646 83.5932 51.6452 83.4977 51.6084C83.0681 51.5337 82.6323 51.5001 82.1963 51.5079C80.9998 51.4935 79.826 51.8341 78.8238 52.4868C77.3767 53.417 76.1658 54.67 75.2863 56.147C74.8965 56.7562 74.5505 57.3923 74.2507 58.0504C74.159 58.2517 74.0582 58.2882 73.8474 58.2058C73.5927 58.074 73.3477 57.9244 73.1143 57.7577C72.3445 57.3642 71.5838 56.9432 70.8507 56.4857C70.4383 56.24 70.0861 55.9052 69.8197 55.5063C69.5534 55.1074 69.3796 54.6543 69.311 54.1797C69.1735 53.3562 69.311 52.5327 69.2285 51.7C69.2285 51.0778 69.2285 50.4372 69.2285 49.7967C69.2285 49.4215 69.2286 49.4397 69.5951 49.458C69.9617 49.4763 70.6124 49.458 71.1164 49.458C71.8567 49.4885 72.5983 49.4612 73.3342 49.3758ZM52.9982 51.3158C52.5245 50.5636 52.2647 49.6967 52.2467 48.8083C52.2166 47.6848 52.5905 46.5877 53.3007 45.7156C54.0152 44.7788 55.0429 44.1294 56.1966 43.8855L56.4532 43.8399C57.0031 43.8399 56.9665 43.7484 57.1314 44.2975C57.417 45.2959 57.9342 46.2131 58.6412 46.9747C59.3482 47.7362 60.225 48.3206 61.2005 48.6805C62.4674 49.1843 63.8145 49.4569 65.1778 49.4857C65.9877 49.5224 66.7991 49.504 67.6064 49.4307C67.7439 49.4307 67.7989 49.4307 67.808 49.5862V49.806C67.808 51.0871 67.808 52.3771 67.808 53.6673C67.8059 54.222 67.6595 54.7668 67.3832 55.248C67.1068 55.7293 66.7101 56.1303 66.2318 56.4124C65.2145 57.0529 64.1514 57.6203 63.1158 58.2425L62.9509 58.2974C62.7527 57.8219 62.5167 57.3629 62.2452 56.9249C61.5984 55.7653 60.807 54.6921 59.8899 53.7312C58.9002 52.7112 57.6525 51.9778 56.2791 51.6084C55.4179 51.4194 54.5286 51.3945 53.6581 51.5351H53.3923C53.2273 51.5351 53.1632 51.4619 53.0165 51.2331M63.1433 47.875C61.8554 47.6424 60.6603 47.0493 59.6975 46.1642C58.9214 45.3722 58.412 44.3578 58.2403 43.2631C58.1331 42.5639 58.1054 41.8547 58.1578 41.1493L60.0549 42.1743L63.9315 44.3064C65.1412 44.9744 66.3509 45.6515 67.5973 46.3103C67.6829 46.3453 67.7551 46.4068 67.803 46.4859C67.8508 46.565 67.8719 46.6575 67.863 46.7495C67.863 47.0972 67.863 47.445 67.863 47.7928C67.863 47.9758 67.7989 48.0579 67.6156 48.0671C67.4323 48.0762 67.3865 48.1129 67.2673 48.1221C66.8549 48.1221 66.4425 48.1221 66.0301 48.1221C65.0698 48.136 64.1109 48.0441 63.1708 47.8477M70.9515 48.1131C70.474 48.124 69.9964 48.1023 69.5218 48.0488C69.2927 48.0488 69.2285 47.9299 69.2377 47.7195C69.256 47.3995 69.256 47.0789 69.2377 46.7589C69.2294 46.6599 69.2523 46.5605 69.3033 46.4752C69.3542 46.3898 69.4306 46.3228 69.5218 46.283C70.2 45.9262 70.869 45.5419 71.538 45.1759L78.1914 41.5157C78.4114 41.3876 78.6497 41.2778 78.9887 41.0948C78.9887 41.4791 78.9887 41.7628 78.9887 42.0098C78.9835 43.0989 78.7029 44.1689 78.1731 45.1209C77.5161 46.1741 76.5211 46.974 75.3504 47.3902C74.0388 47.8685 72.6501 48.1012 71.2539 48.0765H70.9698M86.5494 52.7067C86.1521 52.4464 85.7318 52.2229 85.2939 52.0387C85.0281 51.9289 85.0006 51.8921 85.1473 51.6634C85.5235 51.0148 85.7723 50.3007 85.8804 49.559C86.0365 48.7595 85.9988 47.934 85.7705 47.1521C85.4831 45.9681 84.8448 44.8983 83.9391 44.0821C83.0334 43.2659 81.9022 42.7413 80.6933 42.5768C80.2626 42.4945 80.2626 42.5038 80.2626 42.0554C80.2626 41.607 80.2626 41.3876 80.2626 41.0582C80.2626 40.7287 80.2626 40.7287 80.5834 40.7378C81.3671 40.7745 82.1374 40.9544 82.8562 41.2686C84.1259 41.7614 85.2485 42.5697 86.1178 43.617C86.987 44.6643 87.5741 45.9158 87.8233 47.253C87.93 47.7116 87.9732 48.1825 87.9516 48.6528C87.9766 50.0236 87.6417 51.377 86.9802 52.5784C86.8977 52.734 86.8519 52.8072 86.7877 52.8072C86.7041 52.788 86.6258 52.7504 86.5586 52.6973M49.699 51.6267C49.2768 50.5599 49.0954 49.4134 49.1675 48.2686C49.2605 46.5568 49.9032 44.9204 51.0004 43.6018C52.2246 42.1298 53.9333 41.1407 55.8209 40.8111C56.0775 40.7653 56.3433 40.7378 56.5999 40.7012C56.8565 40.6646 56.8565 40.7561 56.8473 40.9483C56.8473 41.3783 56.8473 41.8175 56.8473 42.2475C56.8473 42.4306 56.774 42.4946 56.5999 42.5129C55.8373 42.6028 55.0979 42.8325 54.4187 43.1903C53.5634 43.6263 52.8247 44.2596 52.2636 45.0378C51.7026 45.816 51.3355 46.7163 51.1928 47.6645C50.9584 48.9883 51.1985 50.3522 51.871 51.5168C52.0634 51.8737 52.0635 51.8831 51.6969 52.057C51.3303 52.2309 50.7804 52.5508 50.2672 52.8344C50.0175 52.4562 49.8116 52.0512 49.6532 51.6267M67.5148 44.8921C65.5169 43.8215 63.5466 42.7143 61.567 41.6162L58.277 39.7861C58.4786 39.292 58.5977 38.7705 58.836 38.2947C59.0116 37.9132 59.2169 37.5459 59.45 37.1965C59.6333 36.9311 59.6425 36.9219 59.9266 37.0866L62.905 38.6879C64.2247 39.4016 65.5444 40.1338 66.8641 40.8567L67.6247 41.2775C67.6904 41.3056 67.7459 41.3533 67.7836 41.4138C67.8213 41.4744 67.8394 41.545 67.8355 41.6162C67.8355 42.696 67.8355 43.7755 67.8355 44.8644C67.8394 44.8918 67.8394 44.9198 67.8355 44.9471H67.7622C67.6889 44.9471 67.6248 44.8827 67.5606 44.8461M69.2927 44.9471C69.2377 44.84 69.2215 44.7168 69.2469 44.599C69.2469 43.684 69.2469 42.6959 69.2469 41.7351C69.2344 41.6225 69.2589 41.509 69.3168 41.4116C69.3747 41.3142 69.4627 41.2384 69.5676 41.1953C72.0695 39.8411 74.5623 38.45 77.0642 37.0866C77.1189 37.0647 77.1711 37.0372 77.22 37.0044C77.3758 36.8946 77.4858 36.9129 77.6049 37.096C78.0939 37.8299 78.465 38.6356 78.7046 39.4841C78.7239 39.5253 78.7345 39.57 78.7357 39.6155C78.7368 39.6609 78.7285 39.7065 78.7113 39.7486C78.6941 39.7907 78.6683 39.8286 78.6356 39.8603C78.6029 39.892 78.564 39.9168 78.5213 39.9327L75.3688 41.6801L69.7417 44.7733C69.6234 44.863 69.4851 44.9226 69.3385 44.9471M60.4306 35.9794C61.1455 35.2474 61.8328 34.5705 62.566 33.9483C62.8959 33.6646 62.8867 33.6643 63.2625 33.8656C64.6646 34.6251 66.0118 35.3939 67.4506 36.1443C67.6038 36.202 67.7337 36.3086 67.8199 36.4476C67.906 36.5867 67.9438 36.7501 67.9272 36.9128C67.9272 37.8278 67.9272 38.6698 67.9272 39.5574C67.9588 39.7167 67.9328 39.8818 67.8539 40.0238C65.41 38.6513 62.9386 37.3032 60.4398 35.9794M69.2927 39.7951C69.2927 38.7702 69.2927 37.7457 69.2927 36.7117C69.2774 36.6284 69.2908 36.5421 69.3308 36.4673C69.3707 36.3925 69.4348 36.3335 69.5126 36.2998L74.0949 33.7745C74.1468 33.7288 74.2136 33.7034 74.2828 33.7034C74.3519 33.7034 74.4187 33.7288 74.4706 33.7745C75.1855 34.3967 75.8728 35.0369 76.5143 35.714C76.7068 35.9153 76.6976 35.9521 76.4502 36.0893L72.4545 38.2764L69.7051 39.7861C69.5753 39.8783 69.4237 39.9352 69.2652 39.951C69.2616 39.89 69.2616 39.8288 69.2652 39.7678M65.801 33.9116C65.1595 33.5365 64.4355 33.2711 63.8123 32.8228C65.3681 31.5978 66.7359 30.152 67.8722 28.5313V34.9821C67.1468 34.6973 66.4527 34.3386 65.801 33.9116ZM69.3019 28.4214C69.8367 29.2644 70.4504 30.0549 71.1348 30.7822C71.8038 31.496 72.5552 32.1365 73.3526 32.8594L69.3202 35.0737L69.3019 28.4214ZM68.3854 22.8306C68.1838 22.8306 68.1105 22.9036 68.1105 23.1049C68.1135 23.5087 68.089 23.9121 68.0372 24.3126C67.8319 26.0029 67.1304 27.5948 66.021 28.8878C64.9917 30.0683 63.8567 31.1525 62.6301 32.1271C61.545 33.0169 60.5166 33.9734 59.5508 34.9911C58.4224 36.1653 57.6063 37.6032 57.1772 39.1731C57.1742 39.2224 57.1607 39.2702 57.1376 39.3139C57.1146 39.3575 57.0825 39.3957 57.0435 39.426C57.0045 39.4563 56.9594 39.4779 56.9114 39.4895C56.8634 39.501 56.8134 39.5027 56.7648 39.4935C55.8199 39.5083 54.8866 39.7038 54.0155 40.0698C52.4028 40.6584 50.99 41.6912 49.9406 43.0482C48.8913 44.4053 48.2483 46.031 48.0861 47.7378C47.8463 49.6048 48.2193 51.499 49.1491 53.1365C49.3691 53.5391 49.3691 53.5391 49.0575 53.8411C48.1141 54.7462 47.3738 55.8411 46.8855 57.0531C46.3531 58.3997 45.963 59.7982 45.7216 61.2258C45.4284 62.7447 45.1901 64.2729 44.7502 65.801C44.3813 67.1604 43.7286 68.4261 42.8348 69.5157C42.1601 70.2915 41.3611 70.9504 40.4704 71.465C40.1954 71.6298 40.1954 71.6387 40.3421 71.8949C40.672 72.4347 40.5895 72.3984 41.0844 72.133C42.9765 71.0778 45.1906 70.7522 47.3071 71.218C48.7143 71.547 50.0981 71.9688 51.4494 72.4806C52.6408 72.8924 53.8139 73.3314 55.0419 73.6334C56.695 74.0935 58.437 74.1348 60.1099 73.7527C60.4765 73.6612 60.4765 73.6701 60.6872 73.9904C60.7422 74.091 60.8064 74.1828 60.8705 74.2835C61.6362 75.4679 62.6675 76.4582 63.8827 77.176C65.0979 77.8939 66.4638 78.3197 67.8722 78.4195C69.5787 78.5513 71.2883 78.2087 72.812 77.4303C74.3357 76.6518 75.6139 75.4676 76.5051 74.0087C76.7251 73.661 76.7251 73.6518 77.1375 73.7616C78.1106 74.0032 79.1178 74.0777 80.116 73.9814C81.4424 73.8281 82.7465 73.521 84.0017 73.0664C85.5597 72.5356 87.0901 71.9226 88.6848 71.4834C89.9562 71.0916 91.2883 70.9333 92.6163 71.0165C93.8618 71.1279 95.07 71.4988 96.163 72.1053L96.4288 72.2519C96.4562 72.2734 96.4901 72.2849 96.525 72.2849C96.5599 72.2849 96.5938 72.2734 96.6212 72.2519C96.7815 72.0813 96.8896 71.8687 96.9328 71.6389C96.9328 71.465 96.7128 71.4466 96.5845 71.3551L96.2913 71.1719C95.2374 70.501 94.3404 69.612 93.6611 68.5644C93.212 67.8385 92.852 67.0609 92.5888 66.2491C92.1218 64.6507 91.7545 63.0251 91.4891 61.3812C91.3058 60.4662 91.1133 59.5512 90.8567 58.6361C90.6918 58.0413 90.4168 57.483 90.1969 56.9066C89.6878 55.7733 88.9372 54.7647 87.9974 53.951C87.7408 53.7131 87.7317 53.7129 87.9241 53.3652C88.6771 51.9892 89.0799 50.4496 89.0972 48.8816C89.0896 48.5755 89.0651 48.27 89.0238 47.9666C88.9475 46.8291 88.6354 45.7198 88.1074 44.709C87.5594 43.6068 86.7874 42.6309 85.8407 41.8432C84.894 41.0555 83.7932 40.4732 82.6087 40.1337C81.8647 39.8633 81.0816 39.715 80.2901 39.6945C80.0885 39.6945 80.0151 39.6032 79.9693 39.4385C79.8777 39.1274 79.7952 38.8254 79.6852 38.5235C79.1399 37.15 78.3162 35.9039 77.2658 34.8633C76.3141 33.8981 75.3139 32.9819 74.269 32.1182C73.1667 31.2248 72.1399 30.2424 71.1989 29.1809C69.8273 27.6244 69.0485 25.6351 68.9994 23.5624C68.9994 22.9676 69.1094 23.0044 68.3946 23.0044L68.3854 22.8306Z" fill="white"/>
</mask>
<g mask="url(#mask0_41_1911)">
<path d="M84.8719 0.0960218L17.2392 34.6523L51.6733 101.839L119.306 67.2829L84.8719 0.0960218Z" fill="url(#paint0_linear_41_1911)"/>
</g>
<path d="M58.2678 108.579C58.1383 108.636 57.9953 108.655 57.8554 108.634C57.3147 108.634 56.7832 108.634 56.2425 108.634C55.7018 108.634 55.6376 108.771 55.6743 108.021C55.766 105.953 55.7751 103.885 55.7476 101.817C55.7608 100.848 55.5573 99.8884 55.1519 99.0079C54.9483 98.5656 54.6339 98.1829 54.2389 97.8976C53.8439 97.6123 53.3819 97.4336 52.8975 97.3789C52.3545 97.2874 51.8 97.2874 51.257 97.3789C50.5963 97.4909 49.976 97.7726 49.4571 98.1961C48.9382 98.6196 48.5383 99.1705 48.2969 99.7947C47.8669 100.855 47.655 101.991 47.6737 103.135C47.6737 104.406 47.6737 105.678 47.6737 106.95C47.6737 107.38 47.7287 107.81 47.7562 108.241C47.7837 108.671 47.7562 108.616 47.4079 108.616H45.181C45.2451 106.337 45.2359 104.086 45.2268 101.835C45.2387 101.042 45.1147 100.253 44.8602 99.5016C44.6765 98.8484 44.2767 98.2769 43.7258 97.8797C43.1749 97.4826 42.5055 97.2835 41.8267 97.315C40.8367 97.264 39.8612 97.5691 39.0774 98.1751C38.2926 98.8276 37.7292 99.7066 37.4644 100.691C37.1644 101.794 37.0407 102.936 37.0979 104.077C37.0979 104.992 37.0979 105.907 37.0979 106.822C37.0979 107.334 37.0979 107.856 37.1712 108.378C37.1712 108.579 37.1712 108.67 36.9329 108.652C36.2089 108.597 35.4849 108.652 34.7609 108.652C34.5501 108.652 34.4402 108.588 34.4952 108.378C34.5563 108.009 34.5809 107.635 34.5685 107.261C34.6326 105.907 34.6693 104.516 34.6601 103.189C34.6601 102.146 34.6601 101.103 34.6601 100.06C34.6601 98.7241 34.5776 97.3791 34.5501 96.034C34.5501 95.8601 34.376 95.6405 34.5501 95.5032C34.7243 95.3659 34.9442 95.4574 35.1458 95.4482H37.1895C37.0154 97.196 36.8871 98.916 36.8413 100.645C37.0154 100.645 36.9971 100.545 37.0154 100.472C37.3096 99.2415 37.9048 98.1037 38.7475 97.1595C39.4048 96.4646 40.2282 95.948 41.1404 95.6582C42.0526 95.3685 43.0236 95.3152 43.9621 95.5032C44.7249 95.6339 45.4311 95.9897 45.9896 96.5246C46.5482 97.0595 46.9337 97.7488 47.0963 98.5044C47.262 99.1007 47.3514 99.7156 47.3621 100.334C47.5179 100.334 47.5087 100.206 47.5271 100.124C47.7833 99.0198 48.338 98.0069 49.1308 97.1957C50.0658 96.2283 51.3113 95.6195 52.65 95.4755C53.3525 95.3908 54.0648 95.4406 54.7487 95.6221C55.3996 95.8149 55.992 96.1672 56.4721 96.6466C56.9522 97.1259 57.3049 97.7173 57.498 98.3672C57.8052 99.2495 57.9571 100.178 57.9471 101.112C57.9471 102.302 57.9471 103.482 57.9471 104.672C57.9471 105.862 58.0204 107.124 58.1212 108.332C58.1212 108.414 58.1212 108.497 58.1671 108.606" fill="white"/>
<path d="M84.1942 103.556V105.944C84.1942 106.108 84.075 106.154 83.9742 106.227C83.146 106.836 82.2476 107.343 81.2982 107.737C79.9072 108.311 78.4414 108.684 76.9451 108.845C75.695 108.988 74.4354 109.031 73.1784 108.972C70.9183 108.947 68.6924 108.419 66.6625 107.426C65.4763 106.858 64.448 106.008 63.6682 104.95C62.8883 103.892 62.3808 102.659 62.1902 101.359C61.8522 99.5322 62.0692 97.6457 62.8134 95.9425C63.3627 94.7238 64.2221 93.6698 65.3061 92.8859C66.6377 91.9321 68.1552 91.2681 69.7601 90.937C71.0137 90.6475 72.295 90.4941 73.5817 90.4795C74.4981 90.4795 75.4146 90.4795 76.276 90.4795C77.8017 90.5899 79.3123 90.8535 80.785 91.2663C81.8206 91.55 82.8287 91.9161 83.8276 92.2913C83.9297 92.3173 84.0183 92.3806 84.076 92.4686C84.1337 92.5567 84.1562 92.6633 84.1392 92.7671C84.1392 93.4442 84.1392 94.1213 84.1392 94.8076C83.9405 94.8013 83.7486 94.7342 83.5893 94.6155C81.8968 93.7301 80.0894 93.0833 78.2189 92.6938C77.3881 92.5185 76.5459 92.4024 75.6987 92.3462C75.158 92.3462 74.6264 92.2915 74.0949 92.3006C72.5191 92.3045 70.955 92.5703 69.4668 93.0875C67.9795 93.5821 66.6931 94.5454 65.801 95.8326C65.1806 96.7795 64.8145 97.8697 64.7379 98.9986C64.6134 100.265 64.8219 101.543 65.3428 102.704C65.9423 104.019 66.9693 105.093 68.2571 105.752C69.6101 106.443 71.086 106.863 72.6011 106.987C73.6821 107.098 74.7708 107.113 75.8545 107.032C78.1007 106.899 80.2793 106.214 82.1963 105.038C82.9114 104.586 83.5915 104.082 84.2308 103.528" fill="white"/>
<path d="M89.6196 100.618C89.8762 100.499 89.8853 100.28 89.9495 100.097C90.3185 99.0183 90.944 98.0452 91.7725 97.2611C92.6009 96.4769 93.6075 95.9048 94.7059 95.5945C96.0099 95.2201 97.3992 95.2685 98.6741 95.7321C99.3973 95.9825 100.042 96.4186 100.542 96.997C101.042 97.5753 101.381 98.2751 101.524 99.0259C101.681 99.6979 101.761 100.386 101.763 101.076C101.763 101.79 101.763 102.494 101.763 103.208C101.763 104.489 101.763 105.77 101.763 107.051C101.779 107.483 101.819 107.914 101.882 108.341C101.882 108.652 101.882 108.671 101.607 108.671H99.7005C99.3797 108.671 99.3798 108.671 99.3798 108.323C99.3798 106.374 99.3798 104.416 99.3798 102.467C99.3829 101.89 99.3307 101.314 99.2239 100.747C99.0815 99.8271 98.6479 98.9774 97.9867 98.3218C97.4753 97.849 96.8395 97.5315 96.1538 97.4067C95.4458 97.2469 94.711 97.2458 94.0026 97.404C93.2941 97.5623 92.6297 97.8759 92.0573 98.3218C91.2292 98.9864 90.6117 99.8761 90.2794 100.884C89.9861 101.699 89.8403 102.561 89.8487 103.427C89.8487 105.038 89.8487 106.639 89.8487 108.25C89.8487 108.735 89.9037 108.68 89.3996 108.68H87.6217C87.2918 108.68 87.2826 108.68 87.3009 108.332L87.4659 104.672C87.4705 104.614 87.4705 104.556 87.4659 104.498C87.4659 102.439 87.4659 100.39 87.4659 98.3307C87.4659 97.2784 87.4659 96.217 87.4659 95.1647C87.4659 94.1124 87.4659 92.9137 87.3743 91.7882C87.3743 91.1111 87.3193 90.4338 87.3009 89.7566C87.3009 89.4547 87.3009 89.4546 87.6125 89.4546H89.702C90.0136 89.4546 90.0228 89.4547 89.9953 89.7566C89.9037 90.873 89.8578 91.9986 89.8029 93.1241L89.7479 94.7255C89.6929 96.034 89.6745 97.3515 89.647 98.66C89.6655 99.0787 89.6471 99.4982 89.5921 99.9137C89.5737 100.139 89.5737 100.366 89.5921 100.591" fill="white"/>
<path d="M16.1845 99.2184C16.1845 98.5413 16.1845 97.9004 16.1845 97.2507C16.1845 97.0311 16.322 96.9857 16.4594 96.9125C17.4701 96.4105 18.5379 96.0326 19.6395 95.787C20.5457 95.5977 21.4647 95.475 22.3889 95.4206C23.8568 95.3018 25.3342 95.4287 26.7603 95.7959C27.6952 96.0049 28.5396 96.5049 29.172 97.2235C29.8043 97.942 30.1921 98.8422 30.2795 99.7948C30.3894 100.638 30.4354 101.488 30.417 102.338C30.3955 103.795 30.512 105.25 30.7652 106.685C30.8702 107.235 31.0079 107.78 31.1776 108.314C31.2172 108.416 31.2329 108.525 31.2234 108.634C30.7961 108.657 30.3678 108.657 29.9404 108.634C29.6471 108.634 29.363 108.634 29.0698 108.634C29.0312 108.64 28.9917 108.639 28.9537 108.63C28.9156 108.621 28.8797 108.605 28.8481 108.582C28.8165 108.559 28.7898 108.53 28.7697 108.496C28.7495 108.463 28.7362 108.426 28.7307 108.387C28.5167 107.684 28.3574 106.965 28.2541 106.237C28.2541 106.026 28.1991 105.816 28.1625 105.559C27.8417 105.88 27.6126 106.2 27.3285 106.474C26.1604 107.671 24.6431 108.469 22.9937 108.753C21.6711 109.009 20.3115 109.009 18.9888 108.753C18.144 108.599 17.3579 108.216 16.716 107.646C16.3905 107.317 16.1406 106.921 15.9838 106.486C15.8269 106.05 15.7669 105.587 15.8079 105.126C15.8489 104.665 15.9899 104.219 16.2211 103.818C16.4523 103.417 16.7682 103.072 17.1468 102.805C17.9436 102.3 18.8356 101.964 19.7678 101.817C20.7475 101.64 21.7415 101.554 22.7371 101.561H27.6951C28.0892 101.561 28.0892 101.561 28.0708 101.176C28.0503 100.643 27.9641 100.115 27.8142 99.6027C27.6678 99.0545 27.3732 98.557 26.9626 98.1649C26.5521 97.7727 26.0414 97.5008 25.4865 97.3789C24.3844 97.0883 23.2399 96.9923 22.1048 97.0952C20.7898 97.1808 19.4968 97.4744 18.274 97.9647C17.6457 98.2196 17.0515 98.5516 16.5052 98.953C16.4088 99.0494 16.2887 99.1186 16.157 99.1541M25.1749 102.403C24.2056 102.382 23.2358 102.412 22.2697 102.494C21.3589 102.543 20.4632 102.748 19.6212 103.098C19.3312 103.207 19.0711 103.382 18.8621 103.61C18.6532 103.839 18.5014 104.113 18.4191 104.412C18.3369 104.71 18.3265 105.023 18.3889 105.326C18.4513 105.629 18.5846 105.913 18.7781 106.154C19.0813 106.526 19.4903 106.797 19.9511 106.932C20.7359 107.177 21.5595 107.273 22.3797 107.216C23.2742 107.193 24.1604 107.039 25.0099 106.758C26.0132 106.423 26.9455 105.905 27.7592 105.23C27.877 105.148 27.9711 105.036 28.0322 104.906C28.0932 104.776 28.1192 104.632 28.1075 104.489C28.1075 103.894 28.1075 103.299 28.1075 102.714C28.1075 102.412 28.1075 102.403 27.7867 102.403H25.184" fill="white"/>
<path d="M104.695 95.5487H106.858C107.023 95.5487 107.105 95.5487 107.096 95.7592V96.0702C107.096 97.946 107.096 99.8311 107.096 101.707C107.085 102.357 107.135 103.006 107.243 103.647C107.334 104.172 107.51 104.679 107.765 105.148C108.019 105.638 108.393 106.056 108.854 106.362C109.314 106.668 109.844 106.851 110.395 106.895C111.321 107.008 112.26 106.914 113.145 106.621C113.839 106.403 114.472 106.022 114.99 105.511C115.508 105.001 115.896 104.374 116.123 103.684C116.44 102.804 116.592 101.873 116.572 100.938C116.572 99.3097 116.572 97.6719 116.572 96.034V95.7319C116.572 95.5947 116.618 95.5215 116.765 95.5215H118.937C119.129 95.5215 119.166 95.613 119.148 95.7686C119.056 96.6836 119.028 97.516 118.992 98.3944C118.987 98.4523 118.987 98.5103 118.992 98.5682C118.992 99.7212 118.873 100.874 118.937 102.027C119.001 103.18 118.937 104.397 119.038 105.578C119.093 106.447 119.038 107.307 119.166 108.167C119.17 108.256 119.17 108.344 119.166 108.433C119.166 108.579 119.111 108.643 118.964 108.634H116.746C116.563 108.634 116.453 108.634 116.481 108.378C116.563 107.664 116.646 106.95 116.701 106.237C116.756 105.523 116.792 104.653 116.829 103.857C116.829 103.857 116.829 103.857 116.774 103.784C116.719 103.711 116.627 103.994 116.6 104.095C116.297 105.117 115.764 106.055 115.042 106.84C114.174 107.745 113.064 108.38 111.843 108.67C111.267 108.811 110.677 108.885 110.084 108.89C109.081 108.944 108.082 108.733 107.188 108.277C106.337 107.8 105.687 107.033 105.355 106.117C105.101 105.426 104.949 104.702 104.906 103.967C104.805 102.522 104.906 101.076 104.86 99.6298C104.814 98.184 104.86 96.949 104.713 95.5581" fill="white"/>
<path d="M8.9354 90.8271H17.4309C17.8066 90.8271 17.8066 90.8275 17.8066 91.2118V92.5933C17.8066 92.9411 17.8066 92.9501 17.4401 92.941C17.0735 92.9318 16.4594 92.886 15.9737 92.8494L13.8934 92.7305C12.7662 92.6573 11.6389 92.6572 10.5117 92.6572C10.1543 92.6572 10.1543 92.6576 10.1543 93.0053C10.1543 96.574 10.1543 100.152 10.1543 103.72C10.1543 104.507 10.1543 105.285 10.1543 106.063C10.1543 106.841 10.1543 107.536 10.2276 108.268C10.2276 108.652 10.2276 108.662 9.87017 108.662H7.78067C7.43242 108.662 7.43242 108.661 7.44159 108.323C7.4461 108.293 7.4461 108.262 7.44159 108.231C7.39576 107.051 7.50574 105.871 7.50574 104.681C7.50574 101.524 7.50574 98.3765 7.50574 95.2196C7.50574 94.4693 7.50574 93.719 7.50574 92.9687C7.50574 92.6667 7.50572 92.6572 7.19413 92.6572C6.07606 92.6572 4.96716 92.6573 3.84909 92.7305C3.07011 92.7763 2.29114 92.8313 1.51216 92.8587L0.265773 92.941C-0.0549845 92.941 -0.0549622 92.9411 -0.0549622 92.6483C-0.0549622 92.1359 -0.0549622 91.6325 -0.0549622 91.1292C-0.0549622 90.8364 -0.0549845 90.8271 0.265773 90.8271H8.87124H8.9354Z" fill="white"/>
<path d="M136.991 105.194C136.991 105.935 136.991 106.584 136.991 107.234C136.991 107.445 136.835 107.49 136.698 107.554C135.833 107.961 134.93 108.283 134.003 108.515C133.189 108.704 132.362 108.829 131.529 108.89C129.844 109.047 128.144 108.892 126.516 108.433C125.188 108.088 124.002 107.336 123.125 106.282C122.403 105.386 121.96 104.298 121.851 103.153C121.708 102.049 121.811 100.927 122.154 99.8682C122.387 99.1595 122.758 98.5037 123.246 97.9384C123.733 97.3732 124.327 96.9095 124.995 96.5739C126.009 96.0448 127.111 95.7036 128.248 95.5673C129.065 95.4544 129.889 95.4053 130.713 95.4207C132.756 95.453 134.769 95.9114 136.624 96.766C136.744 96.8035 136.847 96.8815 136.916 96.9868C136.985 97.092 137.014 97.2177 137 97.3424C137 97.9921 137 98.6419 137 99.2641C136.853 99.3281 136.798 99.264 136.734 99.1908C135.234 98.0404 133.426 97.3589 131.538 97.2325C130.051 97.0905 128.55 97.2845 127.148 97.7999C126.264 98.1209 125.504 98.7118 124.976 99.4888C124.448 100.266 124.179 101.189 124.206 102.128C124.153 103.236 124.505 104.325 125.196 105.194C125.867 105.983 126.772 106.537 127.781 106.777C130.359 107.481 133.105 107.234 135.515 106.081C136.034 105.816 136.53 105.51 137 105.166" fill="white"/>
<path d="M109.433 93.9384L110.551 92.703C111.468 91.669 112.384 90.6443 113.301 89.6103C113.332 89.5619 113.374 89.5211 113.423 89.491C113.472 89.4609 113.527 89.4419 113.585 89.436C114.556 89.436 115.518 89.436 116.527 89.436C116.474 89.548 116.392 89.6434 116.288 89.7108C114.639 91.0285 112.998 92.3461 111.413 93.7369C111.343 93.8035 111.259 93.8538 111.167 93.8839C111.075 93.914 110.977 93.923 110.881 93.9107C110.393 93.8656 109.903 93.8656 109.415 93.9107" fill="white"/>
</g>
<defs>
<linearGradient id="paint0_linear_41_1911" x1="39.1706" y1="21.1548" x2="76.1227" y2="93.4764" gradientUnits="userSpaceOnUse">
<stop stop-color="#98712A"/>
<stop offset="0.23" stop-color="#D6B576"/>
<stop offset="0.41" stop-color="#9C742B"/>
<stop offset="0.59" stop-color="#FFE081"/>
<stop offset="0.77" stop-color="#C1912D"/>
<stop offset="1" stop-color="#E1B75A"/>
</linearGradient>
<clipPath id="clip0_41_1911">
<rect width="137" height="109" fill="white"/>
</clipPath>
</defs>
</svg>
