<svg width="10" height="15" viewBox="0 0 10 15" fill="none" xmlns="http://www.w3.org/2000/svg">
<g clip-path="url(#clip0_35_1580)">
<path d="M0.730007 15.0101C0.576784 15.0115 0.427032 14.9643 0.301907 14.8758C0.176782 14.7874 0.0826448 14.6618 0.0328638 14.5169C-0.0169172 14.372 -0.0197968 14.2153 0.024563 14.0687C0.0689228 13.922 0.158305 13.7931 0.280056 13.7L8.08999 7.49983L0.280056 1.29963C0.133288 1.18173 0.0384486 1.01146 0.0160181 0.824534C-0.00641242 0.637613 0.0453548 0.448914 0.160061 0.299632C0.279433 0.155024 0.449836 0.0622075 0.636013 0.0398662C0.822191 0.0175249 1.00986 0.0677434 1.16006 0.180003L9.68997 6.95002C9.77727 7.0183 9.84795 7.10528 9.89651 7.20491C9.94507 7.30453 9.97024 7.4139 9.97024 7.52473C9.97024 7.63556 9.94507 7.74493 9.89651 7.84455C9.84795 7.94418 9.77727 8.03164 9.68997 8.09993L1.16006 14.8699C1.03485 14.9603 0.884438 15.0094 0.730007 15.0101Z" fill="#741416"/>
</g>
<defs>
<clipPath id="clip0_35_1580">
<rect width="10" height="15.01" fill="white"/>
</clipPath>
</defs>
</svg>
