<svg width="18" height="18" viewBox="0 0 18 18" fill="none" xmlns="http://www.w3.org/2000/svg">
<g clip-path="url(#clip0_27_1281)">
<path d="M17.39 13.1599L15.18 10.9399C14.8843 10.648 14.4855 10.4844 14.07 10.4844C13.6545 10.4844 13.2557 10.648 12.96 10.9399L11.96 11.9399C11.7357 12.1598 11.4341 12.283 11.12 12.283C10.8059 12.283 10.5043 12.1598 10.28 11.9399L5.91002 7.56006C5.79875 7.45029 5.71037 7.31949 5.65007 7.17529C5.58977 7.03109 5.55876 6.87627 5.55876 6.71997C5.55876 6.56367 5.58977 6.40885 5.65007 6.26465C5.71037 6.12045 5.79875 5.9899 5.91002 5.88013L6.91002 4.88013C7.05545 4.7352 7.17082 4.56291 7.24956 4.37329C7.32829 4.18367 7.36882 3.98022 7.36882 3.7749C7.36882 3.56958 7.32829 3.36638 7.24956 3.17676C7.17082 2.98714 7.05545 2.81485 6.91002 2.66992L4.68999 0.459961C4.39557 0.165625 3.99631 0.000244141 3.58 0.000244141C3.16369 0.000244141 2.76444 0.165625 2.47002 0.459961L1.66002 1.27002C0.599923 2.33129 0.00444031 3.76998 0.00444031 5.27002C0.00444031 6.77006 0.599923 8.20875 1.66002 9.27002L8.59001 16.2C9.65129 17.26 11.09 17.8555 12.59 17.8555C14.09 17.8555 15.5287 17.26 16.59 16.2L17.39 15.3999C17.54 15.2545 17.6593 15.0806 17.7407 14.8882C17.8221 14.6958 17.8641 14.4889 17.8641 14.28C17.8641 14.0711 17.8221 13.8643 17.7407 13.6719C17.6593 13.4795 17.54 13.3053 17.39 13.1599ZM14.39 11.6799L16.6 13.8999C16.6503 13.9476 16.6902 14.005 16.7176 14.0686C16.7449 14.1322 16.759 14.2008 16.759 14.27C16.759 14.3393 16.7449 14.4078 16.7176 14.4714C16.6902 14.535 16.6503 14.5922 16.6 14.6399L16.24 15.01L13.24 12.01L13.61 11.6399C13.6607 11.5854 13.7227 11.5428 13.7917 11.5149C13.8607 11.487 13.935 11.4745 14.0093 11.4783C14.0837 11.4821 14.1563 11.502 14.222 11.5369C14.2878 11.5717 14.3451 11.6206 14.39 11.6799ZM3.90001 1.19995L6.11998 3.40991C6.21649 3.50889 6.27055 3.64178 6.27055 3.78003C6.27055 3.91827 6.21649 4.05092 6.11998 4.1499L5.74998 4.52002L2.74998 1.52002L3.11998 1.1499C3.17231 1.09036 3.23759 1.04365 3.31078 1.01318C3.38396 0.982721 3.4631 0.969541 3.54222 0.974365C3.62134 0.97919 3.69832 1.00189 3.76726 1.04102C3.8362 1.08014 3.89528 1.13449 3.93999 1.19995H3.90001ZM9.28001 15.4399L2.39 8.51001C1.5757 7.69921 1.09516 6.61255 1.04332 5.4646C0.991477 4.31665 1.37207 3.19096 2.10997 2.31006L5.04997 5.26001C4.67587 5.68589 4.47805 6.23814 4.49663 6.80469C4.5152 7.37124 4.74882 7.9096 5.15001 8.31006L9.52 12.6899C9.91917 13.0756 10.4478 13.2985 11.0026 13.3152C11.5574 13.3318 12.0984 13.1411 12.52 12.78L15.52 15.73C14.6389 16.4688 13.512 16.8491 12.3634 16.7954C11.2147 16.7417 10.1283 16.2578 9.31999 15.4399H9.28001Z" fill="#741416"/>
</g>
<defs>
<clipPath id="clip0_27_1281">
<rect width="17.84" height="17.84" fill="white"/>
</clipPath>
</defs>
</svg>
