<svg width="60" height="60" viewBox="0 0 60 60" fill="none" xmlns="http://www.w3.org/2000/svg">
<circle cx="30" cy="30" r="29.75" stroke="white" stroke-width="0.5"/>
<path d="M31.8895 32.9147C31.8895 37.3804 35.4959 41 39.9444 41C44.3936 41 48 37.3803 48 32.9147C48 28.3418 44.1909 24.5648 39.45 24.8552C39.7697 23.304 40.5596 21.7779 41.3261 20.5828C41.6762 20.0373 41.0352 19.4034 40.4988 19.765C35.9895 22.7945 31.8895 27.5326 31.8895 32.9147Z" fill="white"/>
<path d="M13 32.9147C13 37.3804 16.6064 41 21.0548 41C25.5041 41 29.1105 37.3803 29.1105 32.9147C29.1105 28.3418 25.3014 24.5648 20.5605 24.8544C20.8802 23.3032 21.6701 21.7771 22.4366 20.582C22.7867 20.0365 22.1457 19.4026 21.6092 19.7642C17.0999 22.7945 13 27.5326 13 32.9147Z" fill="white"/>
</svg>
