<svg width="15" height="15" viewBox="0 0 15 15" fill="none" xmlns="http://www.w3.org/2000/svg">
<path d="M14.6699 13.51L11.29 10.12C11.9184 9.3247 12.3315 8.38115 12.49 7.38003C12.6661 6.37588 12.5835 5.3434 12.25 4.38003L11.9399 3.64004C11.4397 2.63395 10.6671 1.78853 9.70994 1.20004C8.73204 0.61424 7.61129 0.30987 6.47141 0.320458C5.33153 0.331045 4.21683 0.656175 3.24998 1.26003C2.22253 1.91825 1.42015 2.87407 0.949927 4.00002C0.387856 5.31419 0.313426 6.78586 0.739966 8.15005C0.935769 8.76826 1.2333 9.34952 1.62009 9.87002C1.99732 10.3873 2.45263 10.8428 2.96995 11.2201C3.48684 11.5951 4.05627 11.8916 4.65989 12.1001C5.27524 12.3074 5.92068 12.4122 6.57004 12.4101C7.91074 12.4012 9.20978 11.9435 10.26 11.1101L11.05 11.9201C11.59 12.4701 12.25 13.16 12.81 13.7C13.81 14.7 13.9699 14.7 14.1299 14.7H14.2099C14.3452 14.691 14.475 14.644 14.5847 14.5644C14.6944 14.4847 14.7795 14.3758 14.8301 14.25C14.8771 14.1243 14.887 13.9877 14.8586 13.8565C14.8303 13.7253 14.7647 13.6051 14.6699 13.51ZM11.1899 6.38003C11.226 7.46742 10.8712 8.53175 10.1899 9.38003C9.53584 10.1272 8.66983 10.6575 7.70701 10.9004C6.74418 11.1434 5.73028 11.0874 4.80002 10.74C3.79422 10.346 2.96599 9.59964 2.46995 8.64004C1.98259 7.78579 1.79261 6.79389 1.92991 5.82003C2.07564 4.90667 2.47809 4.05357 3.09006 3.36007C3.69812 2.65972 4.49733 2.15224 5.38987 1.90005C5.77004 1.78915 6.16402 1.73194 6.56003 1.73006C7.13989 1.73467 7.71345 1.85004 8.24998 2.07003C9.12924 2.40671 9.88624 3.00128 10.4216 3.77578C10.957 4.55028 11.2457 5.46855 11.25 6.41006L11.1899 6.38003Z" fill="white"/>
</svg>
