<svg width="17" height="18" viewBox="0 0 17 18" fill="none" xmlns="http://www.w3.org/2000/svg">
<g clip-path="url(#clip0_24_326)">
<path d="M11.4214 9.74147C12.3657 9.11313 13.0826 8.19755 13.4662 7.1302C13.8498 6.06284 13.8797 4.90039 13.5515 3.81472C13.2233 2.72905 12.5544 1.77782 11.6437 1.10175C10.733 0.42568 9.62893 0.0606689 8.49474 0.0606689C7.36054 0.0606689 6.25644 0.42568 5.34577 1.10175C4.43509 1.77782 3.76619 2.72905 3.43798 3.81472C3.10976 4.90039 3.13969 6.06284 3.5233 7.1302C3.90691 8.19755 4.62382 9.11313 5.56805 9.74147C3.93303 10.3351 2.52094 11.4186 1.52445 12.8443C0.527965 14.27 -0.00435205 15.9685 4.22473e-05 17.7079H1.41579C1.41579 15.8304 2.16162 14.0299 3.48918 12.7023C4.81674 11.3748 6.61729 10.6289 8.49474 10.6289C10.3722 10.6289 12.1727 11.3748 13.5003 12.7023C14.8278 14.0299 15.5737 15.8304 15.5737 17.7079H16.9578C16.9645 15.9722 16.4368 14.2766 15.4463 12.8513C14.4558 11.426 13.0505 10.3403 11.4214 9.74147ZM8.49474 9.2132C7.72365 9.2132 6.96988 8.98453 6.32874 8.55614C5.68761 8.12774 5.18789 7.5188 4.89281 6.80641C4.59773 6.09401 4.52054 5.31015 4.67097 4.55387C4.8214 3.7976 5.19273 3.10292 5.73798 2.55767C6.28322 2.01243 6.9779 1.6411 7.73418 1.49067C8.49045 1.34024 9.27432 1.41749 9.98671 1.71257C10.6991 2.00765 11.308 2.50737 11.7364 3.14851C12.1648 3.78964 12.3934 4.54341 12.3934 5.3145C12.3907 6.34582 11.9805 7.33424 11.2522 8.06449C10.5239 8.79473 9.53662 9.20762 8.50531 9.2132H8.49474Z" fill="white"/>
</g>
<defs>
<clipPath id="clip0_24_326">
<rect width="17" height="17.7079" fill="white"/>
</clipPath>
</defs>
</svg>
